…
#> 
#>           Est.      SE  %RSE Back-transformed(95%CI) BSV(CV%) Shrink(SD)%
#> tka      1.029  0.1185 11.52     2.798 (2.218, 3.53)  0.00635      100.% 
#> tcl     -2.068 0.04331 2.094 0.1264 (0.1161, 0.1376)     25.0      8.40% 
#> tv       1.077 0.02538 2.357    2.935 (2.792, 3.085)  0.00466      99.9% 
#> add.err  89.11                                 89.11                     
#>  
#>   Covariance Type ($covMethod): nlme
#>   No correlations in between subject variability (BSV) matrix
#>   Full BSV covariance ($omega) or correlation ($omegaR; diagonals=SDs) 
#>   Distribution stats (mean/skewness/kurtosis/p-value) available in $shrink 
#>   Censoring ($censInformation): No censoring
#> 
#> ── Fit Data (object is a modified tibble): ──
#> # A tibble: 360 × 26
#>   ID     TIME    DV EPRED  ERES   NPDE    NPD   PDE    PD  PRED   RES   WRES
#>   <fct> <dbl> <dbl> <dbl> <dbl>  <dbl>  <dbl> <dbl> <dbl> <dbl> <dbl>  <dbl>
#> 1 1     0.302  174.  244. -69.8 -0.941 -0.696 0.173 0.243  232. -57.4 -0.644
#> 2 1     2.91   348.  372. -23.6 -0.100 -0.185 0.46  0.427  366. -18.1 -0.201
#> 3 1     3.14   321.  363. -41.6 -0.496 -0.412 0.31  0.34   363. -41.2 -0.459
#> # … with 357 more rows, and 14 more variables: IPRED <dbl>, IRES <dbl>,
#> #   IWRES <dbl>, CPRED <dbl>, CRES <dbl>, CWRES <dbl>, eta.ka <dbl>,
#> #   eta.cl <dbl>, eta.v <dbl>, ka <dbl>, cl <dbl>, v <dbl>, tad <dbl>,
#> #   dosenum <dbl>
```
…
#> 
#>           Est.     SE %RSE Back-transformed(95%CI) BSV(CV%) Shrink(SD)%
#> tka       1.17   0.15 12.8        3.23 (2.4, 4.33)     7.70      90.2% 
#> tcl      -1.97 0.0418 2.12    0.139 (0.128, 0.151)     22.9      11.7% 
#> tv         1.2  0.037 3.08       3.32 (3.09, 3.57)     13.6      32.3% 
#> prop.err 0.319                               0.319                     
#>  
#>   Covariance Type ($covMethod): linFim
#>   No correlations in between subject variability (BSV) matrix
#>   Full BSV covariance ($omega) or correlation ($omegaR; diagonals=SDs) 
#>   Distribution stats (mean/skewness/kurtosis/p-value) available in $shrink 
#>   Censoring ($censInformation): No censoring
#> 
#> ── Fit Data (object is a modified tibble): ──
#> # A tibble: 360 × 28
#>   ID     TIME    DV EPRED   ERES    NPDE    NPD   PDE    PD  PRED     RES
#>   <fct> <dbl> <dbl> <dbl>  <dbl>   <dbl>  <dbl> <dbl> <dbl> <dbl>   <dbl>
#> 1 1     0.302  174.  237. -62.4  -0.772  -0.750 0.22  0.227  223. -49.1  
#> 2 1     2.91   348.  334.  14.6   0.449   0.193 0.673 0.577  324.  24.3  
#> 3 1     3.14   321.  326.  -4.14 -0.0669  0     0.473 0.5    321.   0.674
#> # … with 357 more rows, and 17 more variables: WRES <dbl>, IPRED <dbl>,
#> #   IRES <dbl>, IWRES <dbl>, CPRED <dbl>, CRES <dbl>, CWRES <dbl>,
#> #   eta.ka <dbl>, eta.cl <dbl>, eta.v <dbl>, depot <dbl>, center <dbl>,
#> #   ka <dbl>, cl <dbl>, v <dbl>, tad <dbl>, dosenum <dbl>
```
…
#> tka     0.137 0.0481 35.1       1.15 (1.04, 1.26)     26.2      10.5% 
#> tcl     -2.12 0.0493 2.33     0.12 (0.109, 0.132)     31.3    -0.857% 
#> tv2     0.597 0.0396 6.63       1.82 (1.68, 1.96)     23.2      4.33% 
#> tv3      1.75 0.0446 2.56       5.73 (5.25, 6.25)     9.49      61.8% 
#> tq      -1.28 0.0511 3.99    0.278 (0.251, 0.307)     29.3      7.09% 
#> add.err  14.8                                14.8                     
#>  
#>   Covariance Type ($covMethod): linFim
#>   No correlations in between subject variability (BSV) matrix
#>   Full BSV covariance ($omega) or correlation ($omegaR; diagonals=SDs) 
#>   Distribution stats (mean/skewness/kurtosis/p-value) available in $shrink 
#>   Censoring ($censInformation): No censoring
#> 
#> ── Fit Data (object is a modified tibble): ──
#> # A tibble: 360 × 33
#>   ID     TIME    DV EPRED  ERES   NPDE    NPD    PDE    PD  PRED   RES   WRES
#>   <fct> <dbl> <dbl> <dbl> <dbl>  <dbl>  <dbl>  <dbl> <dbl> <dbl> <dbl>  <dbl>
#> 1 1     0.302  174.  202. -27.9  0.981 -0.385 0.837  0.35   187. -12.7 -0.214
#> 2 1     2.91   348.  404. -55.5  0.981 -0.903 0.837  0.183  411. -62.7 -0.939
#> 3 1     3.14   321.  389. -67.4 -1.83  -0.967 0.0333 0.167  397. -76.0 -1.20 
#> # … with 357 more rows, and 21 more variables: IPRED <dbl>, IRES <dbl>,
#> #   IWRES <dbl>, CPRED <dbl>, CRES <dbl>, CWRES <dbl>, eta.ka <dbl>,
#> #   eta.cl <dbl>, eta.v2 <dbl>, eta.v3 <dbl>, eta.q <dbl>, depot <dbl>,
#> #   center <dbl>, periph <dbl>, ka <dbl>, cl <dbl>, v2 <dbl>, v3 <dbl>,
#> #   q <dbl>, tad <dbl>, dosenum <dbl>
```
…
#> tka       0.209  0.051 24.4       1.23 (1.12, 1.36)     30.1      6.12% 
#> tcl       -2.21 0.0551  2.5    0.11 (0.0988, 0.123)     34.8      1.22% 
#> tv2       0.658 0.0369 5.61        1.93 (1.8, 2.08)     22.4      3.23% 
#> tv3        1.95 0.0526  2.7       7.03 (6.34, 7.79)     28.6      13.9% 
#> tq        -1.36 0.0404 2.98    0.258 (0.238, 0.279)     24.6      3.90% 
#> prop.err 0.0445                              0.0445                     
#>  
#>   Covariance Type ($covMethod): linFim
#>   No correlations in between subject variability (BSV) matrix
#>   Full BSV covariance ($omega) or correlation ($omegaR; diagonals=SDs) 
#>   Distribution stats (mean/skewness/kurtosis/p-value) available in $shrink 
#>   Censoring ($censInformation): No censoring
#> 
#> ── Fit Data (object is a modified tibble): ──
#> # A tibble: 360 × 33
#>   ID     TIME    DV EPRED  ERES   NPDE    NPD    PDE    PD  PRED   RES   WRES
#>   <fct> <dbl> <dbl> <dbl> <dbl>  <dbl>  <dbl>  <dbl> <dbl> <dbl> <dbl>  <dbl>
#> 1 1     0.302  174.  203. -28.7  0.643 -0.367 0.74   0.357  187. -13.2 -0.216
#> 2 1     2.91   348.  401. -52.9  0.717 -0.866 0.763  0.193  407. -59.2 -0.904
#> 3 1     3.14   321.  388. -66.1 -1.79  -1.01  0.0367 0.157  395. -73.6 -1.18 
#> # … with 357 more rows, and 21 more variables: IPRED <dbl>, IRES <dbl>,
#> #   IWRES <dbl>, CPRED <dbl>, CRES <dbl>, CWRES <dbl>, eta.ka <dbl>,
#> #   eta.cl <dbl>, eta.v2 <dbl>, eta.v3 <dbl>, eta.q <dbl>, depot <dbl>,
#> #   center <dbl>, periph <dbl>, ka <dbl>, cl <dbl>, v2 <dbl>, v3 <dbl>,
#> #   q <dbl>, tad <dbl>, dosenum <dbl>
```
…
